{
  "required": true,
  "minVersion": "0.8",
  "package": "me.jfenn.coordshud.mixin",
  "compatibilityLevel": "JAVA_21",
  "mixins": [
    "ServerCommonNetworkHandlerMixin"
  ],
  "client": [
  ],
  "injectors": {
    "defaultRequire": 1
  }
}
